[
{
    "pk": 1,
    "model": "account.emailaddress",
    "fields": {
        "verified": true,
        "primary": false,
        "email": "admin@admin.com",
        "user": 1
    }
},
{
    "pk": 1,
    "model": "account.emailconfirmation",
    "fields": {
        "key": "c6xt6vcjisjy1w7y663a8c1y7rylflgh4ffam2vzqpelbws4xyks0bpaq59sfgx3",
        "created": "2015-09-05T11:56:04.942Z",
        "sent": "2015-09-05T11:56:07.594Z",
        "email_address": 1
    }
},
{
    "model": "socialaccount.socialapp",
    "pk": 1,
    "fields": {
        "sites": [
            1
        ],
        "client_id": "5054876",
        "name": "ImagePick",
        "key": "",
        "secret": "K7KC6Kna0P81qvCJaJB8",
        "provider": "vk"
    }
},
{
    "model": "socialaccount.socialapp",
    "pk": 2,
    "fields": {
        "sites": [
            1
        ],
        "client_id": "516304175194268",
        "name": "ImagePick",
        "key": "",
        "secret": "b0771ab9373635b5402f63bd5f3b0291",
        "provider": "facebook"
    }
},
{
    "model": "socialaccount.socialapp",
    "pk": 3,
    "fields": {
        "sites": [
            1
        ],
        "client_id": "415870485073-5dearl7vg6ifa1492psi8md5fmoqs882.apps.googleusercontent.com",
        "name": "ImagePick",
        "key": "",
        "secret": "mNVTF5Q8b_Kr54AoRtFkolE0",
        "provider": "google"
    }
},
{
    "pk": 1,
    "model": "sites.site",
    "fields": {
        "domain": "localhost:8000",
        "name": "localhost:8000"
    }
},
{
    "fields": {
        "name": "1"
    },
    "model": "eloboosted.category",
    "pk": 1
},
{
    "fields": {
        "name": "2"
    },
    "model": "eloboosted.category",
    "pk": 2
},
{
    "fields": {
        "password": "pbkdf2_sha256$20000$AKoiRe5Vttjs$G9hCFFCDJnYQ2e91D5JkDvjFu0Svy/dNurdKZcQFgcA=",
        "is_superuser": true,
        "likes_balance": 0,
        "sex": "male",
        "last_name": "",
        "age": 20,
        "groups": [],
        "allow_see_all_images": true,
        "email": "admin@admin.com",
        "is_staff": true,
        "username": "admin",
        "user_permissions": [],
        "country": 58,
        "first_name": "",
        "is_active": true,
        "favorite_images": [],
        "allow_messages": true,
        "date_joined": "2015-09-02T04:48:53Z",
        "last_login": "2015-09-04T16:50:57Z"
    },
    "model": "usermanagement.myuser",
    "pk": 1
},
{
    "fields": {
        "iso": "AC",
        "name_ru": "\u043e-\u0432 \u0412\u043e\u0437\u043d\u0435\u0441\u0435\u043d\u0438\u044f",
        "name_en": "Ascension Island",
        "name": "\u043e-\u0432 \u0412\u043e\u0437\u043d\u0435\u0441\u0435\u043d\u0438\u044f"
    },
    "model": "usermanagement.country",
    "pk": 1
},
{
    "fields": {
        "iso": "AD",
        "name_ru": "\u0410\u043d\u0434\u043e\u0440\u0440\u0430",
        "name_en": "Andorra",
        "name": "\u0410\u043d\u0434\u043e\u0440\u0440\u0430"
    },
    "model": "usermanagement.country",
    "pk": 2
},
{
    "fields": {
        "iso": "AE",
        "name_ru": "\u041e\u0410\u042d",
        "name_en": "United Arab Emirates",
        "name": "\u041e\u0410\u042d"
    },
    "model": "usermanagement.country",
    "pk": 3
},
{
    "fields": {
        "iso": "AF",
        "name_ru": "\u0410\u0444\u0433\u0430\u043d\u0438\u0441\u0442\u0430\u043d",
        "name_en": "Afghanistan",
        "name": "\u0410\u0444\u0433\u0430\u043d\u0438\u0441\u0442\u0430\u043d"
    },
    "model": "usermanagement.country",
    "pk": 4
},
{
    "fields": {
        "iso": "AG",
        "name_ru": "\u0410\u043d\u0442\u0438\u0433\u0443\u0430 \u0438 \u0411\u0430\u0440\u0431\u0443\u0434\u0430",
        "name_en": "Antigua and Barbuda",
        "name": "\u0410\u043d\u0442\u0438\u0433\u0443\u0430 \u0438 \u0411\u0430\u0440\u0431\u0443\u0434\u0430"
    },
    "model": "usermanagement.country",
    "pk": 5
},
{
    "fields": {
        "iso": "AI",
        "name_ru": "\u0410\u043d\u0433\u0438\u043b\u044c\u044f",
        "name_en": "Anguilla",
        "name": "\u0410\u043d\u0433\u0438\u043b\u044c\u044f"
    },
    "model": "usermanagement.country",
    "pk": 6
},
{
    "fields": {
        "iso": "AL",
        "name_ru": "\u0410\u043b\u0431\u0430\u043d\u0438\u044f",
        "name_en": "Albania",
        "name": "\u0410\u043b\u0431\u0430\u043d\u0438\u044f"
    },
    "model": "usermanagement.country",
    "pk": 7
},
{
    "fields": {
        "iso": "AM",
        "name_ru": "\u0410\u0440\u043c\u0435\u043d\u0438\u044f",
        "name_en": "Armenia",
        "name": "\u0410\u0440\u043c\u0435\u043d\u0438\u044f"
    },
    "model": "usermanagement.country",
    "pk": 8
},
{
    "fields": {
        "iso": "AO",
        "name_ru": "\u0410\u043d\u0433\u043e\u043b\u0430",
        "name_en": "Angola",
        "name": "\u0410\u043d\u0433\u043e\u043b\u0430"
    },
    "model": "usermanagement.country",
    "pk": 9
},
{
    "fields": {
        "iso": "AQ",
        "name_ru": "\u0410\u043d\u0442\u0430\u0440\u043a\u0442\u0438\u0434\u0430",
        "name_en": "Antarctica",
        "name": "\u0410\u043d\u0442\u0430\u0440\u043a\u0442\u0438\u0434\u0430"
    },
    "model": "usermanagement.country",
    "pk": 10
},
{
    "fields": {
        "iso": "AR",
        "name_ru": "\u0410\u0440\u0433\u0435\u043d\u0442\u0438\u043d\u0430",
        "name_en": "Argentina",
        "name": "\u0410\u0440\u0433\u0435\u043d\u0442\u0438\u043d\u0430"
    },
    "model": "usermanagement.country",
    "pk": 11
},
{
    "fields": {
        "iso": "AS",
        "name_ru": "\u0410\u043c\u0435\u0440\u0438\u043a\u0430\u043d\u0441\u043a\u043e\u0435 \u0421\u0430\u043c\u043e\u0430",
        "name_en": "American Samoa",
        "name": "\u0410\u043c\u0435\u0440\u0438\u043a\u0430\u043d\u0441\u043a\u043e\u0435 \u0421\u0430\u043c\u043e\u0430"
    },
    "model": "usermanagement.country",
    "pk": 12
},
{
    "fields": {
        "iso": "AT",
        "name_ru": "\u0410\u0432\u0441\u0442\u0440\u0438\u044f",
        "name_en": "Austria",
        "name": "\u0410\u0432\u0441\u0442\u0440\u0438\u044f"
    },
    "model": "usermanagement.country",
    "pk": 13
},
{
    "fields": {
        "iso": "AU",
        "name_ru": "\u0410\u0432\u0441\u0442\u0440\u0430\u043b\u0438\u044f",
        "name_en": "Australia",
        "name": "\u0410\u0432\u0441\u0442\u0440\u0430\u043b\u0438\u044f"
    },
    "model": "usermanagement.country",
    "pk": 14
},
{
    "fields": {
        "iso": "AW",
        "name_ru": "\u0410\u0440\u0443\u0431\u0430",
        "name_en": "Aruba",
        "name": "\u0410\u0440\u0443\u0431\u0430"
    },
    "model": "usermanagement.country",
    "pk": 15
},
{
    "fields": {
        "iso": "AX",
        "name_ru": "\u0410\u043b\u0430\u043d\u0434\u0441\u043a\u0438\u0435 \u043e-\u0432\u0430",
        "name_en": "\u00c5land Islands",
        "name": "\u0410\u043b\u0430\u043d\u0434\u0441\u043a\u0438\u0435 \u043e-\u0432\u0430"
    },
    "model": "usermanagement.country",
    "pk": 16
},
{
    "fields": {
        "iso": "AZ",
        "name_ru": "\u0410\u0437\u0435\u0440\u0431\u0430\u0439\u0434\u0436\u0430\u043d",
        "name_en": "Azerbaijan",
        "name": "\u0410\u0437\u0435\u0440\u0431\u0430\u0439\u0434\u0436\u0430\u043d"
    },
    "model": "usermanagement.country",
    "pk": 17
},
{
    "fields": {
        "iso": "BA",
        "name_ru": "\u0411\u043e\u0441\u043d\u0438\u044f \u0438 \u0413\u0435\u0440\u0446\u0435\u0433\u043e\u0432\u0438\u043d\u0430",
        "name_en": "Bosnia and Herzegovina",
        "name": "\u0411\u043e\u0441\u043d\u0438\u044f \u0438 \u0413\u0435\u0440\u0446\u0435\u0433\u043e\u0432\u0438\u043d\u0430"
    },
    "model": "usermanagement.country",
    "pk": 18
},
{
    "fields": {
        "iso": "BB",
        "name_ru": "\u0411\u0430\u0440\u0431\u0430\u0434\u043e\u0441",
        "name_en": "Barbados",
        "name": "\u0411\u0430\u0440\u0431\u0430\u0434\u043e\u0441"
    },
    "model": "usermanagement.country",
    "pk": 19
},
{
    "fields": {
        "iso": "BD",
        "name_ru": "\u0411\u0430\u043d\u0433\u043b\u0430\u0434\u0435\u0448",
        "name_en": "Bangladesh",
        "name": "\u0411\u0430\u043d\u0433\u043b\u0430\u0434\u0435\u0448"
    },
    "model": "usermanagement.country",
    "pk": 20
},
{
    "fields": {
        "iso": "BE",
        "name_ru": "\u0411\u0435\u043b\u044c\u0433\u0438\u044f",
        "name_en": "Belgium",
        "name": "\u0411\u0435\u043b\u044c\u0433\u0438\u044f"
    },
    "model": "usermanagement.country",
    "pk": 21
},
{
    "fields": {
        "iso": "BF",
        "name_ru": "\u0411\u0443\u0440\u043a\u0438\u043d\u0430-\u0424\u0430\u0441\u043e",
        "name_en": "Burkina Faso",
        "name": "\u0411\u0443\u0440\u043a\u0438\u043d\u0430-\u0424\u0430\u0441\u043e"
    },
    "model": "usermanagement.country",
    "pk": 22
},
{
    "fields": {
        "iso": "BG",
        "name_ru": "\u0411\u043e\u043b\u0433\u0430\u0440\u0438\u044f",
        "name_en": "Bulgaria",
        "name": "\u0411\u043e\u043b\u0433\u0430\u0440\u0438\u044f"
    },
    "model": "usermanagement.country",
    "pk": 23
},
{
    "fields": {
        "iso": "BH",
        "name_ru": "\u0411\u0430\u0445\u0440\u0435\u0439\u043d",
        "name_en": "Bahrain",
        "name": "\u0411\u0430\u0445\u0440\u0435\u0439\u043d"
    },
    "model": "usermanagement.country",
    "pk": 24
},
{
    "fields": {
        "iso": "BI",
        "name_ru": "\u0411\u0443\u0440\u0443\u043d\u0434\u0438",
        "name_en": "Burundi",
        "name": "\u0411\u0443\u0440\u0443\u043d\u0434\u0438"
    },
    "model": "usermanagement.country",
    "pk": 25
},
{
    "fields": {
        "iso": "BJ",
        "name_ru": "\u0411\u0435\u043d\u0438\u043d",
        "name_en": "Benin",
        "name": "\u0411\u0435\u043d\u0438\u043d"
    },
    "model": "usermanagement.country",
    "pk": 26
},
{
    "fields": {
        "iso": "BL",
        "name_ru": "\u0421\u0435\u043d-\u0411\u0430\u0440\u0442\u0435\u043b\u044c\u043c\u0438",
        "name_en": "Saint Barth\u00e9lemy",
        "name": "\u0421\u0435\u043d-\u0411\u0430\u0440\u0442\u0435\u043b\u044c\u043c\u0438"
    },
    "model": "usermanagement.country",
    "pk": 27
},
{
    "fields": {
        "iso": "BM",
        "name_ru": "\u0411\u0435\u0440\u043c\u0443\u0434\u0441\u043a\u0438\u0435 \u043e-\u0432\u0430",
        "name_en": "Bermuda",
        "name": "\u0411\u0435\u0440\u043c\u0443\u0434\u0441\u043a\u0438\u0435 \u043e-\u0432\u0430"
    },
    "model": "usermanagement.country",
    "pk": 28
},
{
    "fields": {
        "iso": "BN",
        "name_ru": "\u0411\u0440\u0443\u043d\u0435\u0439-\u0414\u0430\u0440\u0443\u0441\u0441\u0430\u043b\u0430\u043c",
        "name_en": "Brunei",
        "name": "\u0411\u0440\u0443\u043d\u0435\u0439-\u0414\u0430\u0440\u0443\u0441\u0441\u0430\u043b\u0430\u043c"
    },
    "model": "usermanagement.country",
    "pk": 29
},
{
    "fields": {
        "iso": "BO",
        "name_ru": "\u0411\u043e\u043b\u0438\u0432\u0438\u044f",
        "name_en": "Bolivia",
        "name": "\u0411\u043e\u043b\u0438\u0432\u0438\u044f"
    },
    "model": "usermanagement.country",
    "pk": 30
},
{
    "fields": {
        "iso": "BQ",
        "name_ru": "\u0411\u043e\u043d\u044d\u0439\u0440, \u0421\u0438\u043d\u0442-\u042d\u0441\u0442\u0430\u0442\u0438\u0443\u0441 \u0438 \u0421\u0430\u0431\u0430",
        "name_en": "Bonaire, Sint Eustatius, and Saba",
        "name": "\u0411\u043e\u043d\u044d\u0439\u0440, \u0421\u0438\u043d\u0442-\u042d\u0441\u0442\u0430\u0442\u0438\u0443\u0441 \u0438 \u0421\u0430\u0431\u0430"
    },
    "model": "usermanagement.country",
    "pk": 31
},
{
    "fields": {
        "iso": "BR",
        "name_ru": "\u0411\u0440\u0430\u0437\u0438\u043b\u0438\u044f",
        "name_en": "Brazil",
        "name": "\u0411\u0440\u0430\u0437\u0438\u043b\u0438\u044f"
    },
    "model": "usermanagement.country",
    "pk": 32
},
{
    "fields": {
        "iso": "BS",
        "name_ru": "\u0411\u0430\u0433\u0430\u043c\u0441\u043a\u0438\u0435 \u043e-\u0432\u0430",
        "name_en": "Bahamas",
        "name": "\u0411\u0430\u0433\u0430\u043c\u0441\u043a\u0438\u0435 \u043e-\u0432\u0430"
    },
    "model": "usermanagement.country",
    "pk": 33
},
{
    "fields": {
        "iso": "BT",
        "name_ru": "\u0411\u0443\u0442\u0430\u043d",
        "name_en": "Bhutan",
        "name": "\u0411\u0443\u0442\u0430\u043d"
    },
    "model": "usermanagement.country",
    "pk": 34
},
{
    "fields": {
        "iso": "BW",
        "name_ru": "\u0411\u043e\u0442\u0441\u0432\u0430\u043d\u0430",
        "name_en": "Botswana",
        "name": "\u0411\u043e\u0442\u0441\u0432\u0430\u043d\u0430"
    },
    "model": "usermanagement.country",
    "pk": 35
},
{
    "fields": {
        "iso": "BY",
        "name_ru": "\u0411\u0435\u043b\u0430\u0440\u0443\u0441\u044c",
        "name_en": "Belarus",
        "name": "\u0411\u0435\u043b\u0430\u0440\u0443\u0441\u044c"
    },
    "model": "usermanagement.country",
    "pk": 36
},
{
    "fields": {
        "iso": "BZ",
        "name_ru": "\u0411\u0435\u043b\u0438\u0437",
        "name_en": "Belize",
        "name": "\u0411\u0435\u043b\u0438\u0437"
    },
    "model": "usermanagement.country",
    "pk": 37
},
{
    "fields": {
        "iso": "CA",
        "name_ru": "\u041a\u0430\u043d\u0430\u0434\u0430",
        "name_en": "Canada",
        "name": "\u041a\u0430\u043d\u0430\u0434\u0430"
    },
    "model": "usermanagement.country",
    "pk": 38
},
{
    "fields": {
        "iso": "CC",
        "name_ru": "\u041a\u043e\u043a\u043e\u0441\u043e\u0432\u044b\u0435 \u043e-\u0432\u0430",
        "name_en": "Cocos [Keeling] Islands",
        "name": "\u041a\u043e\u043a\u043e\u0441\u043e\u0432\u044b\u0435 \u043e-\u0432\u0430"
    },
    "model": "usermanagement.country",
    "pk": 39
},
{
    "fields": {
        "iso": "CD",
        "name_ru": "\u041a\u043e\u043d\u0433\u043e - \u041a\u0438\u043d\u0448\u0430\u0441\u0430",
        "name_en": "Congo - Kinshasa",
        "name": "\u041a\u043e\u043d\u0433\u043e - \u041a\u0438\u043d\u0448\u0430\u0441\u0430"
    },
    "model": "usermanagement.country",
    "pk": 40
},
{
    "fields": {
        "iso": "CF",
        "name_ru": "\u0426\u0410\u0420",
        "name_en": "Central African Republic",
        "name": "\u0426\u0410\u0420"
    },
    "model": "usermanagement.country",
    "pk": 41
},
{
    "fields": {
        "iso": "CG",
        "name_ru": "\u041a\u043e\u043d\u0433\u043e - \u0411\u0440\u0430\u0437\u0437\u0430\u0432\u0438\u043b\u044c",
        "name_en": "Congo - Brazzaville",
        "name": "\u041a\u043e\u043d\u0433\u043e - \u0411\u0440\u0430\u0437\u0437\u0430\u0432\u0438\u043b\u044c"
    },
    "model": "usermanagement.country",
    "pk": 42
},
{
    "fields": {
        "iso": "CH",
        "name_ru": "\u0428\u0432\u0435\u0439\u0446\u0430\u0440\u0438\u044f",
        "name_en": "Switzerland",
        "name": "\u0428\u0432\u0435\u0439\u0446\u0430\u0440\u0438\u044f"
    },
    "model": "usermanagement.country",
    "pk": 43
},
{
    "fields": {
        "iso": "CI",
        "name_ru": "\u041a\u043e\u0442-\u0434\u2019\u0418\u0432\u0443\u0430\u0440",
        "name_en": "C\u00f4te d\u2019Ivoire",
        "name": "\u041a\u043e\u0442-\u0434\u2019\u0418\u0432\u0443\u0430\u0440"
    },
    "model": "usermanagement.country",
    "pk": 44
},
{
    "fields": {
        "iso": "CK",
        "name_ru": "\u043e-\u0432\u0430 \u041a\u0443\u043a\u0430",
        "name_en": "Cook Islands",
        "name": "\u043e-\u0432\u0430 \u041a\u0443\u043a\u0430"
    },
    "model": "usermanagement.country",
    "pk": 45
},
{
    "fields": {
        "iso": "CL",
        "name_ru": "\u0427\u0438\u043b\u0438",
        "name_en": "Chile",
        "name": "\u0427\u0438\u043b\u0438"
    },
    "model": "usermanagement.country",
    "pk": 46
},
{
    "fields": {
        "iso": "CM",
        "name_ru": "\u041a\u0430\u043c\u0435\u0440\u0443\u043d",
        "name_en": "Cameroon",
        "name": "\u041a\u0430\u043c\u0435\u0440\u0443\u043d"
    },
    "model": "usermanagement.country",
    "pk": 47
},
{
    "fields": {
        "iso": "CN",
        "name_ru": "\u041a\u0438\u0442\u0430\u0439",
        "name_en": "China",
        "name": "\u041a\u0438\u0442\u0430\u0439"
    },
    "model": "usermanagement.country",
    "pk": 48
},
{
    "fields": {
        "iso": "CO",
        "name_ru": "\u041a\u043e\u043b\u0443\u043c\u0431\u0438\u044f",
        "name_en": "Colombia",
        "name": "\u041a\u043e\u043b\u0443\u043c\u0431\u0438\u044f"
    },
    "model": "usermanagement.country",
    "pk": 49
},
{
    "fields": {
        "iso": "CR",
        "name_ru": "\u041a\u043e\u0441\u0442\u0430-\u0420\u0438\u043a\u0430",
        "name_en": "Costa Rica",
        "name": "\u041a\u043e\u0441\u0442\u0430-\u0420\u0438\u043a\u0430"
    },
    "model": "usermanagement.country",
    "pk": 50
},
{
    "fields": {
        "iso": "CU",
        "name_ru": "\u041a\u0443\u0431\u0430",
        "name_en": "Cuba",
        "name": "\u041a\u0443\u0431\u0430"
    },
    "model": "usermanagement.country",
    "pk": 51
},
{
    "fields": {
        "iso": "CV",
        "name_ru": "\u041a\u0430\u0431\u043e-\u0412\u0435\u0440\u0434\u0435",
        "name_en": "Cape Verde",
        "name": "\u041a\u0430\u0431\u043e-\u0412\u0435\u0440\u0434\u0435"
    },
    "model": "usermanagement.country",
    "pk": 52
},
{
    "fields": {
        "iso": "CW",
        "name_ru": "\u041a\u044e\u0440\u0430\u0441\u0430\u043e",
        "name_en": "Cura\u00e7ao",
        "name": "\u041a\u044e\u0440\u0430\u0441\u0430\u043e"
    },
    "model": "usermanagement.country",
    "pk": 53
},
{
    "fields": {
        "iso": "CX",
        "name_ru": "\u043e-\u0432 \u0420\u043e\u0436\u0434\u0435\u0441\u0442\u0432\u0430",
        "name_en": "Christmas Island",
        "name": "\u043e-\u0432 \u0420\u043e\u0436\u0434\u0435\u0441\u0442\u0432\u0430"
    },
    "model": "usermanagement.country",
    "pk": 54
},
{
    "fields": {
        "iso": "CY",
        "name_ru": "\u041a\u0438\u043f\u0440",
        "name_en": "Cyprus",
        "name": "\u041a\u0438\u043f\u0440"
    },
    "model": "usermanagement.country",
    "pk": 55
},
{
    "fields": {
        "iso": "CZ",
        "name_ru": "\u0427\u0435\u0445\u0438\u044f",
        "name_en": "Czech Republic",
        "name": "\u0427\u0435\u0445\u0438\u044f"
    },
    "model": "usermanagement.country",
    "pk": 56
},
{
    "fields": {
        "iso": "DE",
        "name_ru": "\u0413\u0435\u0440\u043c\u0430\u043d\u0438\u044f",
        "name_en": "Germany",
        "name": "\u0413\u0435\u0440\u043c\u0430\u043d\u0438\u044f"
    },
    "model": "usermanagement.country",
    "pk": 57
},
{
    "fields": {
        "iso": "DG",
        "name_ru": "\u0414\u0438\u0435\u0433\u043e-\u0413\u0430\u0440\u0441\u0438\u044f",
        "name_en": "Diego Garcia",
        "name": "\u0414\u0438\u0435\u0433\u043e-\u0413\u0430\u0440\u0441\u0438\u044f"
    },
    "model": "usermanagement.country",
    "pk": 58
},
{
    "fields": {
        "iso": "DJ",
        "name_ru": "\u0414\u0436\u0438\u0431\u0443\u0442\u0438",
        "name_en": "Djibouti",
        "name": "\u0414\u0436\u0438\u0431\u0443\u0442\u0438"
    },
    "model": "usermanagement.country",
    "pk": 59
},
{
    "fields": {
        "iso": "DK",
        "name_ru": "\u0414\u0430\u043d\u0438\u044f",
        "name_en": "Denmark",
        "name": "\u0414\u0430\u043d\u0438\u044f"
    },
    "model": "usermanagement.country",
    "pk": 60
},
{
    "fields": {
        "iso": "DM",
        "name_ru": "\u0414\u043e\u043c\u0438\u043d\u0438\u043a\u0430",
        "name_en": "Dominica",
        "name": "\u0414\u043e\u043c\u0438\u043d\u0438\u043a\u0430"
    },
    "model": "usermanagement.country",
    "pk": 61
},
{
    "fields": {
        "iso": "DO",
        "name_ru": "\u0414\u043e\u043c\u0438\u043d\u0438\u043a\u0430\u043d\u0441\u043a\u0430\u044f \u0420\u0435\u0441\u043f\u0443\u0431\u043b\u0438\u043a\u0430",
        "name_en": "Dominican Republic",
        "name": "\u0414\u043e\u043c\u0438\u043d\u0438\u043a\u0430\u043d\u0441\u043a\u0430\u044f \u0420\u0435\u0441\u043f\u0443\u0431\u043b\u0438\u043a\u0430"
    },
    "model": "usermanagement.country",
    "pk": 62
},
{
    "fields": {
        "iso": "DZ",
        "name_ru": "\u0410\u043b\u0436\u0438\u0440",
        "name_en": "Algeria",
        "name": "\u0410\u043b\u0436\u0438\u0440"
    },
    "model": "usermanagement.country",
    "pk": 63
},
{
    "fields": {
        "iso": "EA",
        "name_ru": "\u0421\u0435\u0443\u0442\u0430 \u0438 \u041c\u0435\u043b\u0438\u043b\u044c\u044f",
        "name_en": "Ceuta and Melilla",
        "name": "\u0421\u0435\u0443\u0442\u0430 \u0438 \u041c\u0435\u043b\u0438\u043b\u044c\u044f"
    },
    "model": "usermanagement.country",
    "pk": 64
},
{
    "fields": {
        "iso": "EC",
        "name_ru": "\u042d\u043a\u0432\u0430\u0434\u043e\u0440",
        "name_en": "Ecuador",
        "name": "\u042d\u043a\u0432\u0430\u0434\u043e\u0440"
    },
    "model": "usermanagement.country",
    "pk": 65
},
{
    "fields": {
        "iso": "EE",
        "name_ru": "\u042d\u0441\u0442\u043e\u043d\u0438\u044f",
        "name_en": "Estonia",
        "name": "\u042d\u0441\u0442\u043e\u043d\u0438\u044f"
    },
    "model": "usermanagement.country",
    "pk": 66
},
{
    "fields": {
        "iso": "EG",
        "name_ru": "\u0415\u0433\u0438\u043f\u0435\u0442",
        "name_en": "Egypt",
        "name": "\u0415\u0433\u0438\u043f\u0435\u0442"
    },
    "model": "usermanagement.country",
    "pk": 67
},
{
    "fields": {
        "iso": "EH",
        "name_ru": "\u0417\u0430\u043f\u0430\u0434\u043d\u0430\u044f \u0421\u0430\u0445\u0430\u0440\u0430",
        "name_en": "Western Sahara",
        "name": "\u0417\u0430\u043f\u0430\u0434\u043d\u0430\u044f \u0421\u0430\u0445\u0430\u0440\u0430"
    },
    "model": "usermanagement.country",
    "pk": 68
},
{
    "fields": {
        "iso": "ER",
        "name_ru": "\u042d\u0440\u0438\u0442\u0440\u0435\u044f",
        "name_en": "Eritrea",
        "name": "\u042d\u0440\u0438\u0442\u0440\u0435\u044f"
    },
    "model": "usermanagement.country",
    "pk": 69
},
{
    "fields": {
        "iso": "ES",
        "name_ru": "\u0418\u0441\u043f\u0430\u043d\u0438\u044f",
        "name_en": "Spain",
        "name": "\u0418\u0441\u043f\u0430\u043d\u0438\u044f"
    },
    "model": "usermanagement.country",
    "pk": 70
},
{
    "fields": {
        "iso": "ET",
        "name_ru": "\u042d\u0444\u0438\u043e\u043f\u0438\u044f",
        "name_en": "Ethiopia",
        "name": "\u042d\u0444\u0438\u043e\u043f\u0438\u044f"
    },
    "model": "usermanagement.country",
    "pk": 71
},
{
    "fields": {
        "iso": "FI",
        "name_ru": "\u0424\u0438\u043d\u043b\u044f\u043d\u0434\u0438\u044f",
        "name_en": "Finland",
        "name": "\u0424\u0438\u043d\u043b\u044f\u043d\u0434\u0438\u044f"
    },
    "model": "usermanagement.country",
    "pk": 72
},
{
    "fields": {
        "iso": "FJ",
        "name_ru": "\u0424\u0438\u0434\u0436\u0438",
        "name_en": "Fiji",
        "name": "\u0424\u0438\u0434\u0436\u0438"
    },
    "model": "usermanagement.country",
    "pk": 73
},
{
    "fields": {
        "iso": "FK",
        "name_ru": "\u0424\u043e\u043b\u043a\u043b\u0435\u043d\u0434\u0441\u043a\u0438\u0435 \u043e-\u0432\u0430",
        "name_en": "Falkland Islands",
        "name": "\u0424\u043e\u043b\u043a\u043b\u0435\u043d\u0434\u0441\u043a\u0438\u0435 \u043e-\u0432\u0430"
    },
    "model": "usermanagement.country",
    "pk": 74
},
{
    "fields": {
        "iso": "FM",
        "name_ru": "\u0424\u0435\u0434\u0435\u0440\u0430\u0442\u0438\u0432\u043d\u044b\u0435 \u0428\u0442\u0430\u0442\u044b \u041c\u0438\u043a\u0440\u043e\u043d\u0435\u0437\u0438\u0438",
        "name_en": "Micronesia",
        "name": "\u0424\u0435\u0434\u0435\u0440\u0430\u0442\u0438\u0432\u043d\u044b\u0435 \u0428\u0442\u0430\u0442\u044b \u041c\u0438\u043a\u0440\u043e\u043d\u0435\u0437\u0438\u0438"
    },
    "model": "usermanagement.country",
    "pk": 75
},
{
    "fields": {
        "iso": "FO",
        "name_ru": "\u0424\u0430\u0440\u0435\u0440\u0441\u043a\u0438\u0435 \u043e-\u0432\u0430",
        "name_en": "Faroe Islands",
        "name": "\u0424\u0430\u0440\u0435\u0440\u0441\u043a\u0438\u0435 \u043e-\u0432\u0430"
    },
    "model": "usermanagement.country",
    "pk": 76
},
{
    "fields": {
        "iso": "FR",
        "name_ru": "\u0424\u0440\u0430\u043d\u0446\u0438\u044f",
        "name_en": "France",
        "name": "\u0424\u0440\u0430\u043d\u0446\u0438\u044f"
    },
    "model": "usermanagement.country",
    "pk": 77
},
{
    "fields": {
        "iso": "GA",
        "name_ru": "\u0413\u0430\u0431\u043e\u043d",
        "name_en": "Gabon",
        "name": "\u0413\u0430\u0431\u043e\u043d"
    },
    "model": "usermanagement.country",
    "pk": 78
},
{
    "fields": {
        "iso": "GB",
        "name_ru": "\u0412\u0435\u043b\u0438\u043a\u043e\u0431\u0440\u0438\u0442\u0430\u043d\u0438\u044f",
        "name_en": "United Kingdom",
        "name": "\u0412\u0435\u043b\u0438\u043a\u043e\u0431\u0440\u0438\u0442\u0430\u043d\u0438\u044f"
    },
    "model": "usermanagement.country",
    "pk": 79
},
{
    "fields": {
        "iso": "GD",
        "name_ru": "\u0413\u0440\u0435\u043d\u0430\u0434\u0430",
        "name_en": "Grenada",
        "name": "\u0413\u0440\u0435\u043d\u0430\u0434\u0430"
    },
    "model": "usermanagement.country",
    "pk": 80
},
{
    "fields": {
        "iso": "GE",
        "name_ru": "\u0413\u0440\u0443\u0437\u0438\u044f",
        "name_en": "Georgia",
        "name": "\u0413\u0440\u0443\u0437\u0438\u044f"
    },
    "model": "usermanagement.country",
    "pk": 81
},
{
    "fields": {
        "iso": "GF",
        "name_ru": "\u0424\u0440\u0430\u043d\u0446\u0443\u0437\u0441\u043a\u0430\u044f \u0413\u0432\u0438\u0430\u043d\u0430",
        "name_en": "French Guiana",
        "name": "\u0424\u0440\u0430\u043d\u0446\u0443\u0437\u0441\u043a\u0430\u044f \u0413\u0432\u0438\u0430\u043d\u0430"
    },
    "model": "usermanagement.country",
    "pk": 82
},
{
    "fields": {
        "iso": "GG",
        "name_ru": "\u0413\u0435\u0440\u043d\u0441\u0438",
        "name_en": "Guernsey",
        "name": "\u0413\u0435\u0440\u043d\u0441\u0438"
    },
    "model": "usermanagement.country",
    "pk": 83
},
{
    "fields": {
        "iso": "GH",
        "name_ru": "\u0413\u0430\u043d\u0430",
        "name_en": "Ghana",
        "name": "\u0413\u0430\u043d\u0430"
    },
    "model": "usermanagement.country",
    "pk": 84
},
{
    "fields": {
        "iso": "GI",
        "name_ru": "\u0413\u0438\u0431\u0440\u0430\u043b\u0442\u0430\u0440",
        "name_en": "Gibraltar",
        "name": "\u0413\u0438\u0431\u0440\u0430\u043b\u0442\u0430\u0440"
    },
    "model": "usermanagement.country",
    "pk": 85
},
{
    "fields": {
        "iso": "GL",
        "name_ru": "\u0413\u0440\u0435\u043d\u043b\u0430\u043d\u0434\u0438\u044f",
        "name_en": "Greenland",
        "name": "\u0413\u0440\u0435\u043d\u043b\u0430\u043d\u0434\u0438\u044f"
    },
    "model": "usermanagement.country",
    "pk": 86
},
{
    "fields": {
        "iso": "GM",
        "name_ru": "\u0413\u0430\u043c\u0431\u0438\u044f",
        "name_en": "Gambia",
        "name": "\u0413\u0430\u043c\u0431\u0438\u044f"
    },
    "model": "usermanagement.country",
    "pk": 87
},
{
    "fields": {
        "iso": "GN",
        "name_ru": "\u0413\u0432\u0438\u043d\u0435\u044f",
        "name_en": "Guinea",
        "name": "\u0413\u0432\u0438\u043d\u0435\u044f"
    },
    "model": "usermanagement.country",
    "pk": 88
},
{
    "fields": {
        "iso": "GP",
        "name_ru": "\u0413\u0432\u0430\u0434\u0435\u043b\u0443\u043f\u0430",
        "name_en": "Guadeloupe",
        "name": "\u0413\u0432\u0430\u0434\u0435\u043b\u0443\u043f\u0430"
    },
    "model": "usermanagement.country",
    "pk": 89
},
{
    "fields": {
        "iso": "GQ",
        "name_ru": "\u042d\u043a\u0432\u0430\u0442\u043e\u0440\u0438\u0430\u043b\u044c\u043d\u0430\u044f \u0413\u0432\u0438\u043d\u0435\u044f",
        "name_en": "Equatorial Guinea",
        "name": "\u042d\u043a\u0432\u0430\u0442\u043e\u0440\u0438\u0430\u043b\u044c\u043d\u0430\u044f \u0413\u0432\u0438\u043d\u0435\u044f"
    },
    "model": "usermanagement.country",
    "pk": 90
},
{
    "fields": {
        "iso": "GR",
        "name_ru": "\u0413\u0440\u0435\u0446\u0438\u044f",
        "name_en": "Greece",
        "name": "\u0413\u0440\u0435\u0446\u0438\u044f"
    },
    "model": "usermanagement.country",
    "pk": 91
},
{
    "fields": {
        "iso": "GS",
        "name_ru": "\u042e\u0436\u043d\u0430\u044f \u0413\u0435\u043e\u0440\u0433\u0438\u044f \u0438 \u042e\u0436\u043d\u044b\u0435 \u0421\u0430\u043d\u0434\u0432\u0438\u0447\u0435\u0432\u044b \u043e-\u0432\u0430",
        "name_en": "South Georgia and the South Sandwich Islands",
        "name": "\u042e\u0436\u043d\u0430\u044f \u0413\u0435\u043e\u0440\u0433\u0438\u044f \u0438 \u042e\u0436\u043d\u044b\u0435 \u0421\u0430\u043d\u0434\u0432\u0438\u0447\u0435\u0432\u044b \u043e-\u0432\u0430"
    },
    "model": "usermanagement.country",
    "pk": 92
},
{
    "fields": {
        "iso": "GT",
        "name_ru": "\u0413\u0432\u0430\u0442\u0435\u043c\u0430\u043b\u0430",
        "name_en": "Guatemala",
        "name": "\u0413\u0432\u0430\u0442\u0435\u043c\u0430\u043b\u0430"
    },
    "model": "usermanagement.country",
    "pk": 93
},
{
    "fields": {
        "iso": "GU",
        "name_ru": "\u0413\u0443\u0430\u043c",
        "name_en": "Guam",
        "name": "\u0413\u0443\u0430\u043c"
    },
    "model": "usermanagement.country",
    "pk": 94
},
{
    "fields": {
        "iso": "GW",
        "name_ru": "\u0413\u0432\u0438\u043d\u0435\u044f-\u0411\u0438\u0441\u0430\u0443",
        "name_en": "Guinea-Bissau",
        "name": "\u0413\u0432\u0438\u043d\u0435\u044f-\u0411\u0438\u0441\u0430\u0443"
    },
    "model": "usermanagement.country",
    "pk": 95
},
{
    "fields": {
        "iso": "GY",
        "name_ru": "\u0413\u0430\u0439\u0430\u043d\u0430",
        "name_en": "Guyana",
        "name": "\u0413\u0430\u0439\u0430\u043d\u0430"
    },
    "model": "usermanagement.country",
    "pk": 96
},
{
    "fields": {
        "iso": "HK",
        "name_ru": "\u0413\u043e\u043d\u043a\u043e\u043d\u0433 (\u043e\u0441\u043e\u0431\u044b\u0439 \u0440\u0430\u0439\u043e\u043d)",
        "name_en": "Hong Kong SAR China",
        "name": "\u0413\u043e\u043d\u043a\u043e\u043d\u0433 (\u043e\u0441\u043e\u0431\u044b\u0439 \u0440\u0430\u0439\u043e\u043d)"
    },
    "model": "usermanagement.country",
    "pk": 97
},
{
    "fields": {
        "iso": "HN",
        "name_ru": "\u0413\u043e\u043d\u0434\u0443\u0440\u0430\u0441",
        "name_en": "Honduras",
        "name": "\u0413\u043e\u043d\u0434\u0443\u0440\u0430\u0441"
    },
    "model": "usermanagement.country",
    "pk": 98
},
{
    "fields": {
        "iso": "HR",
        "name_ru": "\u0425\u043e\u0440\u0432\u0430\u0442\u0438\u044f",
        "name_en": "Croatia",
        "name": "\u0425\u043e\u0440\u0432\u0430\u0442\u0438\u044f"
    },
    "model": "usermanagement.country",
    "pk": 99
},
{
    "fields": {
        "iso": "HT",
        "name_ru": "\u0413\u0430\u0438\u0442\u0438",
        "name_en": "Haiti",
        "name": "\u0413\u0430\u0438\u0442\u0438"
    },
    "model": "usermanagement.country",
    "pk": 100
},
{
    "fields": {
        "iso": "HU",
        "name_ru": "\u0412\u0435\u043d\u0433\u0440\u0438\u044f",
        "name_en": "Hungary",
        "name": "\u0412\u0435\u043d\u0433\u0440\u0438\u044f"
    },
    "model": "usermanagement.country",
    "pk": 101
},
{
    "fields": {
        "iso": "IC",
        "name_ru": "\u041a\u0430\u043d\u0430\u0440\u0441\u043a\u0438\u0435 \u043e-\u0432\u0430",
        "name_en": "Canary Islands",
        "name": "\u041a\u0430\u043d\u0430\u0440\u0441\u043a\u0438\u0435 \u043e-\u0432\u0430"
    },
    "model": "usermanagement.country",
    "pk": 102
},
{
    "fields": {
        "iso": "ID",
        "name_ru": "\u0418\u043d\u0434\u043e\u043d\u0435\u0437\u0438\u044f",
        "name_en": "Indonesia",
        "name": "\u0418\u043d\u0434\u043e\u043d\u0435\u0437\u0438\u044f"
    },
    "model": "usermanagement.country",
    "pk": 103
},
{
    "fields": {
        "iso": "IE",
        "name_ru": "\u0418\u0440\u043b\u0430\u043d\u0434\u0438\u044f",
        "name_en": "Ireland",
        "name": "\u0418\u0440\u043b\u0430\u043d\u0434\u0438\u044f"
    },
    "model": "usermanagement.country",
    "pk": 104
},
{
    "fields": {
        "iso": "IL",
        "name_ru": "\u0418\u0437\u0440\u0430\u0438\u043b\u044c",
        "name_en": "Israel",
        "name": "\u0418\u0437\u0440\u0430\u0438\u043b\u044c"
    },
    "model": "usermanagement.country",
    "pk": 105
},
{
    "fields": {
        "iso": "IM",
        "name_ru": "\u041e-\u0432 \u041c\u044d\u043d",
        "name_en": "Isle of Man",
        "name": "\u041e-\u0432 \u041c\u044d\u043d"
    },
    "model": "usermanagement.country",
    "pk": 106
},
{
    "fields": {
        "iso": "IN",
        "name_ru": "\u0418\u043d\u0434\u0438\u044f",
        "name_en": "India",
        "name": "\u0418\u043d\u0434\u0438\u044f"
    },
    "model": "usermanagement.country",
    "pk": 107
},
{
    "fields": {
        "iso": "IO",
        "name_ru": "\u0411\u0440\u0438\u0442\u0430\u043d\u0441\u043a\u0430\u044f \u0442\u0435\u0440\u0440\u0438\u0442\u043e\u0440\u0438\u044f \u0432 \u0418\u043d\u0434\u0438\u0439\u0441\u043a\u043e\u043c \u043e\u043a\u0435\u0430\u043d\u0435",
        "name_en": "British Indian Ocean Territory",
        "name": "\u0411\u0440\u0438\u0442\u0430\u043d\u0441\u043a\u0430\u044f \u0442\u0435\u0440\u0440\u0438\u0442\u043e\u0440\u0438\u044f \u0432 \u0418\u043d\u0434\u0438\u0439\u0441\u043a\u043e\u043c \u043e\u043a\u0435\u0430\u043d\u0435"
    },
    "model": "usermanagement.country",
    "pk": 108
},
{
    "fields": {
        "iso": "IQ",
        "name_ru": "\u0418\u0440\u0430\u043a",
        "name_en": "Iraq",
        "name": "\u0418\u0440\u0430\u043a"
    },
    "model": "usermanagement.country",
    "pk": 109
},
{
    "fields": {
        "iso": "IR",
        "name_ru": "\u0418\u0440\u0430\u043d",
        "name_en": "Iran",
        "name": "\u0418\u0440\u0430\u043d"
    },
    "model": "usermanagement.country",
    "pk": 110
},
{
    "fields": {
        "iso": "IS",
        "name_ru": "\u0418\u0441\u043b\u0430\u043d\u0434\u0438\u044f",
        "name_en": "Iceland",
        "name": "\u0418\u0441\u043b\u0430\u043d\u0434\u0438\u044f"
    },
    "model": "usermanagement.country",
    "pk": 111
},
{
    "fields": {
        "iso": "IT",
        "name_ru": "\u0418\u0442\u0430\u043b\u0438\u044f",
        "name_en": "Italy",
        "name": "\u0418\u0442\u0430\u043b\u0438\u044f"
    },
    "model": "usermanagement.country",
    "pk": 112
},
{
    "fields": {
        "iso": "JE",
        "name_ru": "\u0414\u0436\u0435\u0440\u0441\u0438",
        "name_en": "Jersey",
        "name": "\u0414\u0436\u0435\u0440\u0441\u0438"
    },
    "model": "usermanagement.country",
    "pk": 113
},
{
    "fields": {
        "iso": "JM",
        "name_ru": "\u042f\u043c\u0430\u0439\u043a\u0430",
        "name_en": "Jamaica",
        "name": "\u042f\u043c\u0430\u0439\u043a\u0430"
    },
    "model": "usermanagement.country",
    "pk": 114
},
{
    "fields": {
        "iso": "JO",
        "name_ru": "\u0418\u043e\u0440\u0434\u0430\u043d\u0438\u044f",
        "name_en": "Jordan",
        "name": "\u0418\u043e\u0440\u0434\u0430\u043d\u0438\u044f"
    },
    "model": "usermanagement.country",
    "pk": 115
},
{
    "fields": {
        "iso": "JP",
        "name_ru": "\u042f\u043f\u043e\u043d\u0438\u044f",
        "name_en": "Japan",
        "name": "\u042f\u043f\u043e\u043d\u0438\u044f"
    },
    "model": "usermanagement.country",
    "pk": 116
},
{
    "fields": {
        "iso": "KE",
        "name_ru": "\u041a\u0435\u043d\u0438\u044f",
        "name_en": "Kenya",
        "name": "\u041a\u0435\u043d\u0438\u044f"
    },
    "model": "usermanagement.country",
    "pk": 117
},
{
    "fields": {
        "iso": "KG",
        "name_ru": "\u041a\u0438\u0440\u0433\u0438\u0437\u0438\u044f",
        "name_en": "Kyrgyzstan",
        "name": "\u041a\u0438\u0440\u0433\u0438\u0437\u0438\u044f"
    },
    "model": "usermanagement.country",
    "pk": 118
},
{
    "fields": {
        "iso": "KH",
        "name_ru": "\u041a\u0430\u043c\u0431\u043e\u0434\u0436\u0430",
        "name_en": "Cambodia",
        "name": "\u041a\u0430\u043c\u0431\u043e\u0434\u0436\u0430"
    },
    "model": "usermanagement.country",
    "pk": 119
},
{
    "fields": {
        "iso": "KI",
        "name_ru": "\u041a\u0438\u0440\u0438\u0431\u0430\u0442\u0438",
        "name_en": "Kiribati",
        "name": "\u041a\u0438\u0440\u0438\u0431\u0430\u0442\u0438"
    },
    "model": "usermanagement.country",
    "pk": 120
},
{
    "fields": {
        "iso": "KM",
        "name_ru": "\u041a\u043e\u043c\u043e\u0440\u0441\u043a\u0438\u0435 \u043e-\u0432\u0430",
        "name_en": "Comoros",
        "name": "\u041a\u043e\u043c\u043e\u0440\u0441\u043a\u0438\u0435 \u043e-\u0432\u0430"
    },
    "model": "usermanagement.country",
    "pk": 121
},
{
    "fields": {
        "iso": "KN",
        "name_ru": "\u0421\u0435\u043d\u0442-\u041a\u0438\u0442\u0441 \u0438 \u041d\u0435\u0432\u0438\u0441",
        "name_en": "Saint Kitts and Nevis",
        "name": "\u0421\u0435\u043d\u0442-\u041a\u0438\u0442\u0441 \u0438 \u041d\u0435\u0432\u0438\u0441"
    },
    "model": "usermanagement.country",
    "pk": 122
},
{
    "fields": {
        "iso": "KP",
        "name_ru": "\u041a\u041d\u0414\u0420",
        "name_en": "North Korea",
        "name": "\u041a\u041d\u0414\u0420"
    },
    "model": "usermanagement.country",
    "pk": 123
},
{
    "fields": {
        "iso": "KR",
        "name_ru": "\u0420\u0435\u0441\u043f\u0443\u0431\u043b\u0438\u043a\u0430 \u041a\u043e\u0440\u0435\u044f",
        "name_en": "South Korea",
        "name": "\u0420\u0435\u0441\u043f\u0443\u0431\u043b\u0438\u043a\u0430 \u041a\u043e\u0440\u0435\u044f"
    },
    "model": "usermanagement.country",
    "pk": 124
},
{
    "fields": {
        "iso": "KW",
        "name_ru": "\u041a\u0443\u0432\u0435\u0439\u0442",
        "name_en": "Kuwait",
        "name": "\u041a\u0443\u0432\u0435\u0439\u0442"
    },
    "model": "usermanagement.country",
    "pk": 125
},
{
    "fields": {
        "iso": "KY",
        "name_ru": "\u041a\u0430\u0439\u043c\u0430\u043d\u043e\u0432\u044b \u043e-\u0432\u0430",
        "name_en": "Cayman Islands",
        "name": "\u041a\u0430\u0439\u043c\u0430\u043d\u043e\u0432\u044b \u043e-\u0432\u0430"
    },
    "model": "usermanagement.country",
    "pk": 126
},
{
    "fields": {
        "iso": "KZ",
        "name_ru": "\u041a\u0430\u0437\u0430\u0445\u0441\u0442\u0430\u043d",
        "name_en": "Kazakhstan",
        "name": "\u041a\u0430\u0437\u0430\u0445\u0441\u0442\u0430\u043d"
    },
    "model": "usermanagement.country",
    "pk": 127
},
{
    "fields": {
        "iso": "LA",
        "name_ru": "\u041b\u0430\u043e\u0441",
        "name_en": "Laos",
        "name": "\u041b\u0430\u043e\u0441"
    },
    "model": "usermanagement.country",
    "pk": 128
},
{
    "fields": {
        "iso": "LB",
        "name_ru": "\u041b\u0438\u0432\u0430\u043d",
        "name_en": "Lebanon",
        "name": "\u041b\u0438\u0432\u0430\u043d"
    },
    "model": "usermanagement.country",
    "pk": 129
},
{
    "fields": {
        "iso": "LC",
        "name_ru": "\u0421\u0435\u043d\u0442-\u041b\u044e\u0441\u0438\u044f",
        "name_en": "Saint Lucia",
        "name": "\u0421\u0435\u043d\u0442-\u041b\u044e\u0441\u0438\u044f"
    },
    "model": "usermanagement.country",
    "pk": 130
},
{
    "fields": {
        "iso": "LI",
        "name_ru": "\u041b\u0438\u0445\u0442\u0435\u043d\u0448\u0442\u0435\u0439\u043d",
        "name_en": "Liechtenstein",
        "name": "\u041b\u0438\u0445\u0442\u0435\u043d\u0448\u0442\u0435\u0439\u043d"
    },
    "model": "usermanagement.country",
    "pk": 131
},
{
    "fields": {
        "iso": "LK",
        "name_ru": "\u0428\u0440\u0438-\u041b\u0430\u043d\u043a\u0430",
        "name_en": "Sri Lanka",
        "name": "\u0428\u0440\u0438-\u041b\u0430\u043d\u043a\u0430"
    },
    "model": "usermanagement.country",
    "pk": 132
},
{
    "fields": {
        "iso": "LR",
        "name_ru": "\u041b\u0438\u0431\u0435\u0440\u0438\u044f",
        "name_en": "Liberia",
        "name": "\u041b\u0438\u0431\u0435\u0440\u0438\u044f"
    },
    "model": "usermanagement.country",
    "pk": 133
},
{
    "fields": {
        "iso": "LS",
        "name_ru": "\u041b\u0435\u0441\u043e\u0442\u043e",
        "name_en": "Lesotho",
        "name": "\u041b\u0435\u0441\u043e\u0442\u043e"
    },
    "model": "usermanagement.country",
    "pk": 134
},
{
    "fields": {
        "iso": "LT",
        "name_ru": "\u041b\u0438\u0442\u0432\u0430",
        "name_en": "Lithuania",
        "name": "\u041b\u0438\u0442\u0432\u0430"
    },
    "model": "usermanagement.country",
    "pk": 135
},
{
    "fields": {
        "iso": "LU",
        "name_ru": "\u041b\u044e\u043a\u0441\u0435\u043c\u0431\u0443\u0440\u0433",
        "name_en": "Luxembourg",
        "name": "\u041b\u044e\u043a\u0441\u0435\u043c\u0431\u0443\u0440\u0433"
    },
    "model": "usermanagement.country",
    "pk": 136
},
{
    "fields": {
        "iso": "LV",
        "name_ru": "\u041b\u0430\u0442\u0432\u0438\u044f",
        "name_en": "Latvia",
        "name": "\u041b\u0430\u0442\u0432\u0438\u044f"
    },
    "model": "usermanagement.country",
    "pk": 137
},
{
    "fields": {
        "iso": "LY",
        "name_ru": "\u041b\u0438\u0432\u0438\u044f",
        "name_en": "Libya",
        "name": "\u041b\u0438\u0432\u0438\u044f"
    },
    "model": "usermanagement.country",
    "pk": 138
},
{
    "fields": {
        "iso": "MA",
        "name_ru": "\u041c\u0430\u0440\u043e\u043a\u043a\u043e",
        "name_en": "Morocco",
        "name": "\u041c\u0430\u0440\u043e\u043a\u043a\u043e"
    },
    "model": "usermanagement.country",
    "pk": 139
},
{
    "fields": {
        "iso": "MC",
        "name_ru": "\u041c\u043e\u043d\u0430\u043a\u043e",
        "name_en": "Monaco",
        "name": "\u041c\u043e\u043d\u0430\u043a\u043e"
    },
    "model": "usermanagement.country",
    "pk": 140
},
{
    "fields": {
        "iso": "MD",
        "name_ru": "\u041c\u043e\u043b\u0434\u043e\u0432\u0430",
        "name_en": "Moldova",
        "name": "\u041c\u043e\u043b\u0434\u043e\u0432\u0430"
    },
    "model": "usermanagement.country",
    "pk": 141
},
{
    "fields": {
        "iso": "ME",
        "name_ru": "\u0427\u0435\u0440\u043d\u043e\u0433\u043e\u0440\u0438\u044f",
        "name_en": "Montenegro",
        "name": "\u0427\u0435\u0440\u043d\u043e\u0433\u043e\u0440\u0438\u044f"
    },
    "model": "usermanagement.country",
    "pk": 142
},
{
    "fields": {
        "iso": "MF",
        "name_ru": "\u0421\u0435\u043d-\u041c\u0430\u0440\u0442\u0435\u043d",
        "name_en": "Saint Martin",
        "name": "\u0421\u0435\u043d-\u041c\u0430\u0440\u0442\u0435\u043d"
    },
    "model": "usermanagement.country",
    "pk": 143
},
{
    "fields": {
        "iso": "MG",
        "name_ru": "\u041c\u0430\u0434\u0430\u0433\u0430\u0441\u043a\u0430\u0440",
        "name_en": "Madagascar",
        "name": "\u041c\u0430\u0434\u0430\u0433\u0430\u0441\u043a\u0430\u0440"
    },
    "model": "usermanagement.country",
    "pk": 144
},
{
    "fields": {
        "iso": "MH",
        "name_ru": "\u041c\u0430\u0440\u0448\u0430\u043b\u043b\u043e\u0432\u044b \u043e-\u0432\u0430",
        "name_en": "Marshall Islands",
        "name": "\u041c\u0430\u0440\u0448\u0430\u043b\u043b\u043e\u0432\u044b \u043e-\u0432\u0430"
    },
    "model": "usermanagement.country",
    "pk": 145
},
{
    "fields": {
        "iso": "MK",
        "name_ru": "\u041c\u0430\u043a\u0435\u0434\u043e\u043d\u0438\u044f",
        "name_en": "Macedonia",
        "name": "\u041c\u0430\u043a\u0435\u0434\u043e\u043d\u0438\u044f"
    },
    "model": "usermanagement.country",
    "pk": 146
},
{
    "fields": {
        "iso": "ML",
        "name_ru": "\u041c\u0430\u043b\u0438",
        "name_en": "Mali",
        "name": "\u041c\u0430\u043b\u0438"
    },
    "model": "usermanagement.country",
    "pk": 147
},
{
    "fields": {
        "iso": "MM",
        "name_ru": "\u041c\u044c\u044f\u043d\u043c\u0430 (\u0411\u0438\u0440\u043c\u0430)",
        "name_en": "Myanmar [Burma]",
        "name": "\u041c\u044c\u044f\u043d\u043c\u0430 (\u0411\u0438\u0440\u043c\u0430)"
    },
    "model": "usermanagement.country",
    "pk": 148
},
{
    "fields": {
        "iso": "MN",
        "name_ru": "\u041c\u043e\u043d\u0433\u043e\u043b\u0438\u044f",
        "name_en": "Mongolia",
        "name": "\u041c\u043e\u043d\u0433\u043e\u043b\u0438\u044f"
    },
    "model": "usermanagement.country",
    "pk": 149
},
{
    "fields": {
        "iso": "MO",
        "name_ru": "\u041c\u0430\u043a\u0430\u043e (\u043e\u0441\u043e\u0431\u044b\u0439 \u0440\u0430\u0439\u043e\u043d)",
        "name_en": "Macau SAR China",
        "name": "\u041c\u0430\u043a\u0430\u043e (\u043e\u0441\u043e\u0431\u044b\u0439 \u0440\u0430\u0439\u043e\u043d)"
    },
    "model": "usermanagement.country",
    "pk": 150
},
{
    "fields": {
        "iso": "MP",
        "name_ru": "\u0421\u0435\u0432\u0435\u0440\u043d\u044b\u0435 \u041c\u0430\u0440\u0438\u0430\u043d\u0441\u043a\u0438\u0435 \u043e-\u0432\u0430",
        "name_en": "Northern Mariana Islands",
        "name": "\u0421\u0435\u0432\u0435\u0440\u043d\u044b\u0435 \u041c\u0430\u0440\u0438\u0430\u043d\u0441\u043a\u0438\u0435 \u043e-\u0432\u0430"
    },
    "model": "usermanagement.country",
    "pk": 151
},
{
    "fields": {
        "iso": "MQ",
        "name_ru": "\u041c\u0430\u0440\u0442\u0438\u043d\u0438\u043a\u0430",
        "name_en": "Martinique",
        "name": "\u041c\u0430\u0440\u0442\u0438\u043d\u0438\u043a\u0430"
    },
    "model": "usermanagement.country",
    "pk": 152
},
{
    "fields": {
        "iso": "MR",
        "name_ru": "\u041c\u0430\u0432\u0440\u0438\u0442\u0430\u043d\u0438\u044f",
        "name_en": "Mauritania",
        "name": "\u041c\u0430\u0432\u0440\u0438\u0442\u0430\u043d\u0438\u044f"
    },
    "model": "usermanagement.country",
    "pk": 153
},
{
    "fields": {
        "iso": "MS",
        "name_ru": "\u041c\u043e\u043d\u0442\u0441\u0435\u0440\u0440\u0430\u0442",
        "name_en": "Montserrat",
        "name": "\u041c\u043e\u043d\u0442\u0441\u0435\u0440\u0440\u0430\u0442"
    },
    "model": "usermanagement.country",
    "pk": 154
},
{
    "fields": {
        "iso": "MT",
        "name_ru": "\u041c\u0430\u043b\u044c\u0442\u0430",
        "name_en": "Malta",
        "name": "\u041c\u0430\u043b\u044c\u0442\u0430"
    },
    "model": "usermanagement.country",
    "pk": 155
},
{
    "fields": {
        "iso": "MU",
        "name_ru": "\u041c\u0430\u0432\u0440\u0438\u043a\u0438\u0439",
        "name_en": "Mauritius",
        "name": "\u041c\u0430\u0432\u0440\u0438\u043a\u0438\u0439"
    },
    "model": "usermanagement.country",
    "pk": 156
},
{
    "fields": {
        "iso": "MV",
        "name_ru": "\u041c\u0430\u043b\u044c\u0434\u0438\u0432\u0441\u043a\u0438\u0435 \u043e-\u0432\u0430",
        "name_en": "Maldives",
        "name": "\u041c\u0430\u043b\u044c\u0434\u0438\u0432\u0441\u043a\u0438\u0435 \u043e-\u0432\u0430"
    },
    "model": "usermanagement.country",
    "pk": 157
},
{
    "fields": {
        "iso": "MW",
        "name_ru": "\u041c\u0430\u043b\u0430\u0432\u0438",
        "name_en": "Malawi",
        "name": "\u041c\u0430\u043b\u0430\u0432\u0438"
    },
    "model": "usermanagement.country",
    "pk": 158
},
{
    "fields": {
        "iso": "MX",
        "name_ru": "\u041c\u0435\u043a\u0441\u0438\u043a\u0430",
        "name_en": "Mexico",
        "name": "\u041c\u0435\u043a\u0441\u0438\u043a\u0430"
    },
    "model": "usermanagement.country",
    "pk": 159
},
{
    "fields": {
        "iso": "MY",
        "name_ru": "\u041c\u0430\u043b\u0430\u0439\u0437\u0438\u044f",
        "name_en": "Malaysia",
        "name": "\u041c\u0430\u043b\u0430\u0439\u0437\u0438\u044f"
    },
    "model": "usermanagement.country",
    "pk": 160
},
{
    "fields": {
        "iso": "MZ",
        "name_ru": "\u041c\u043e\u0437\u0430\u043c\u0431\u0438\u043a",
        "name_en": "Mozambique",
        "name": "\u041c\u043e\u0437\u0430\u043c\u0431\u0438\u043a"
    },
    "model": "usermanagement.country",
    "pk": 161
},
{
    "fields": {
        "iso": "NA",
        "name_ru": "\u041d\u0430\u043c\u0438\u0431\u0438\u044f",
        "name_en": "Namibia",
        "name": "\u041d\u0430\u043c\u0438\u0431\u0438\u044f"
    },
    "model": "usermanagement.country",
    "pk": 162
},
{
    "fields": {
        "iso": "NC",
        "name_ru": "\u041d\u043e\u0432\u0430\u044f \u041a\u0430\u043b\u0435\u0434\u043e\u043d\u0438\u044f",
        "name_en": "New Caledonia",
        "name": "\u041d\u043e\u0432\u0430\u044f \u041a\u0430\u043b\u0435\u0434\u043e\u043d\u0438\u044f"
    },
    "model": "usermanagement.country",
    "pk": 163
},
{
    "fields": {
        "iso": "NE",
        "name_ru": "\u041d\u0438\u0433\u0435\u0440",
        "name_en": "Niger",
        "name": "\u041d\u0438\u0433\u0435\u0440"
    },
    "model": "usermanagement.country",
    "pk": 164
},
{
    "fields": {
        "iso": "NF",
        "name_ru": "\u043e-\u0432 \u041d\u043e\u0440\u0444\u043e\u043b\u043a",
        "name_en": "Norfolk Island",
        "name": "\u043e-\u0432 \u041d\u043e\u0440\u0444\u043e\u043b\u043a"
    },
    "model": "usermanagement.country",
    "pk": 165
},
{
    "fields": {
        "iso": "NG",
        "name_ru": "\u041d\u0438\u0433\u0435\u0440\u0438\u044f",
        "name_en": "Nigeria",
        "name": "\u041d\u0438\u0433\u0435\u0440\u0438\u044f"
    },
    "model": "usermanagement.country",
    "pk": 166
},
{
    "fields": {
        "iso": "NI",
        "name_ru": "\u041d\u0438\u043a\u0430\u0440\u0430\u0433\u0443\u0430",
        "name_en": "Nicaragua",
        "name": "\u041d\u0438\u043a\u0430\u0440\u0430\u0433\u0443\u0430"
    },
    "model": "usermanagement.country",
    "pk": 167
},
{
    "fields": {
        "iso": "NL",
        "name_ru": "\u041d\u0438\u0434\u0435\u0440\u043b\u0430\u043d\u0434\u044b",
        "name_en": "Netherlands",
        "name": "\u041d\u0438\u0434\u0435\u0440\u043b\u0430\u043d\u0434\u044b"
    },
    "model": "usermanagement.country",
    "pk": 168
},
{
    "fields": {
        "iso": "NO",
        "name_ru": "\u041d\u043e\u0440\u0432\u0435\u0433\u0438\u044f",
        "name_en": "Norway",
        "name": "\u041d\u043e\u0440\u0432\u0435\u0433\u0438\u044f"
    },
    "model": "usermanagement.country",
    "pk": 169
},
{
    "fields": {
        "iso": "NP",
        "name_ru": "\u041d\u0435\u043f\u0430\u043b",
        "name_en": "Nepal",
        "name": "\u041d\u0435\u043f\u0430\u043b"
    },
    "model": "usermanagement.country",
    "pk": 170
},
{
    "fields": {
        "iso": "NR",
        "name_ru": "\u041d\u0430\u0443\u0440\u0443",
        "name_en": "Nauru",
        "name": "\u041d\u0430\u0443\u0440\u0443"
    },
    "model": "usermanagement.country",
    "pk": 171
},
{
    "fields": {
        "iso": "NU",
        "name_ru": "\u041d\u0438\u0443\u044d",
        "name_en": "Niue",
        "name": "\u041d\u0438\u0443\u044d"
    },
    "model": "usermanagement.country",
    "pk": 172
},
{
    "fields": {
        "iso": "NZ",
        "name_ru": "\u041d\u043e\u0432\u0430\u044f \u0417\u0435\u043b\u0430\u043d\u0434\u0438\u044f",
        "name_en": "New Zealand",
        "name": "\u041d\u043e\u0432\u0430\u044f \u0417\u0435\u043b\u0430\u043d\u0434\u0438\u044f"
    },
    "model": "usermanagement.country",
    "pk": 173
},
{
    "fields": {
        "iso": "OM",
        "name_ru": "\u041e\u043c\u0430\u043d",
        "name_en": "Oman",
        "name": "\u041e\u043c\u0430\u043d"
    },
    "model": "usermanagement.country",
    "pk": 174
},
{
    "fields": {
        "iso": "PA",
        "name_ru": "\u041f\u0430\u043d\u0430\u043c\u0430",
        "name_en": "Panama",
        "name": "\u041f\u0430\u043d\u0430\u043c\u0430"
    },
    "model": "usermanagement.country",
    "pk": 175
},
{
    "fields": {
        "iso": "PE",
        "name_ru": "\u041f\u0435\u0440\u0443",
        "name_en": "Peru",
        "name": "\u041f\u0435\u0440\u0443"
    },
    "model": "usermanagement.country",
    "pk": 176
},
{
    "fields": {
        "iso": "PF",
        "name_ru": "\u0424\u0440\u0430\u043d\u0446\u0443\u0437\u0441\u043a\u0430\u044f \u041f\u043e\u043b\u0438\u043d\u0435\u0437\u0438\u044f",
        "name_en": "French Polynesia",
        "name": "\u0424\u0440\u0430\u043d\u0446\u0443\u0437\u0441\u043a\u0430\u044f \u041f\u043e\u043b\u0438\u043d\u0435\u0437\u0438\u044f"
    },
    "model": "usermanagement.country",
    "pk": 177
},
{
    "fields": {
        "iso": "PG",
        "name_ru": "\u041f\u0430\u043f\u0443\u0430 \u2013 \u041d\u043e\u0432\u0430\u044f \u0413\u0432\u0438\u043d\u0435\u044f",
        "name_en": "Papua New Guinea",
        "name": "\u041f\u0430\u043f\u0443\u0430 \u2013 \u041d\u043e\u0432\u0430\u044f \u0413\u0432\u0438\u043d\u0435\u044f"
    },
    "model": "usermanagement.country",
    "pk": 178
},
{
    "fields": {
        "iso": "PH",
        "name_ru": "\u0424\u0438\u043b\u0438\u043f\u043f\u0438\u043d\u044b",
        "name_en": "Philippines",
        "name": "\u0424\u0438\u043b\u0438\u043f\u043f\u0438\u043d\u044b"
    },
    "model": "usermanagement.country",
    "pk": 179
},
{
    "fields": {
        "iso": "PK",
        "name_ru": "\u041f\u0430\u043a\u0438\u0441\u0442\u0430\u043d",
        "name_en": "Pakistan",
        "name": "\u041f\u0430\u043a\u0438\u0441\u0442\u0430\u043d"
    },
    "model": "usermanagement.country",
    "pk": 180
},
{
    "fields": {
        "iso": "PL",
        "name_ru": "\u041f\u043e\u043b\u044c\u0448\u0430",
        "name_en": "Poland",
        "name": "\u041f\u043e\u043b\u044c\u0448\u0430"
    },
    "model": "usermanagement.country",
    "pk": 181
},
{
    "fields": {
        "iso": "PM",
        "name_ru": "\u0421\u0435\u043d-\u041f\u044c\u0435\u0440 \u0438 \u041c\u0438\u043a\u0435\u043b\u043e\u043d",
        "name_en": "Saint Pierre and Miquelon",
        "name": "\u0421\u0435\u043d-\u041f\u044c\u0435\u0440 \u0438 \u041c\u0438\u043a\u0435\u043b\u043e\u043d"
    },
    "model": "usermanagement.country",
    "pk": 182
},
{
    "fields": {
        "iso": "PN",
        "name_ru": "\u041f\u0438\u0442\u043a\u044d\u0440\u043d",
        "name_en": "Pitcairn Islands",
        "name": "\u041f\u0438\u0442\u043a\u044d\u0440\u043d"
    },
    "model": "usermanagement.country",
    "pk": 183
},
{
    "fields": {
        "iso": "PR",
        "name_ru": "\u041f\u0443\u044d\u0440\u0442\u043e-\u0420\u0438\u043a\u043e",
        "name_en": "Puerto Rico",
        "name": "\u041f\u0443\u044d\u0440\u0442\u043e-\u0420\u0438\u043a\u043e"
    },
    "model": "usermanagement.country",
    "pk": 184
},
{
    "fields": {
        "iso": "PS",
        "name_ru": "\u041f\u0430\u043b\u0435\u0441\u0442\u0438\u043d\u0441\u043a\u0438\u0435 \u0442\u0435\u0440\u0440\u0438\u0442\u043e\u0440\u0438\u0438",
        "name_en": "Palestinian Territories",
        "name": "\u041f\u0430\u043b\u0435\u0441\u0442\u0438\u043d\u0441\u043a\u0438\u0435 \u0442\u0435\u0440\u0440\u0438\u0442\u043e\u0440\u0438\u0438"
    },
    "model": "usermanagement.country",
    "pk": 185
},
{
    "fields": {
        "iso": "PT",
        "name_ru": "\u041f\u043e\u0440\u0442\u0443\u0433\u0430\u043b\u0438\u044f",
        "name_en": "Portugal",
        "name": "\u041f\u043e\u0440\u0442\u0443\u0433\u0430\u043b\u0438\u044f"
    },
    "model": "usermanagement.country",
    "pk": 186
},
{
    "fields": {
        "iso": "PW",
        "name_ru": "\u041f\u0430\u043b\u0430\u0443",
        "name_en": "Palau",
        "name": "\u041f\u0430\u043b\u0430\u0443"
    },
    "model": "usermanagement.country",
    "pk": 187
},
{
    "fields": {
        "iso": "PY",
        "name_ru": "\u041f\u0430\u0440\u0430\u0433\u0432\u0430\u0439",
        "name_en": "Paraguay",
        "name": "\u041f\u0430\u0440\u0430\u0433\u0432\u0430\u0439"
    },
    "model": "usermanagement.country",
    "pk": 188
},
{
    "fields": {
        "iso": "QA",
        "name_ru": "\u041a\u0430\u0442\u0430\u0440",
        "name_en": "Qatar",
        "name": "\u041a\u0430\u0442\u0430\u0440"
    },
    "model": "usermanagement.country",
    "pk": 189
},
{
    "fields": {
        "iso": "RE",
        "name_ru": "\u0420\u0435\u044e\u043d\u044c\u043e\u043d",
        "name_en": "R\u00e9union",
        "name": "\u0420\u0435\u044e\u043d\u044c\u043e\u043d"
    },
    "model": "usermanagement.country",
    "pk": 190
},
{
    "fields": {
        "iso": "RO",
        "name_ru": "\u0420\u0443\u043c\u044b\u043d\u0438\u044f",
        "name_en": "Romania",
        "name": "\u0420\u0443\u043c\u044b\u043d\u0438\u044f"
    },
    "model": "usermanagement.country",
    "pk": 191
},
{
    "fields": {
        "iso": "RS",
        "name_ru": "\u0421\u0435\u0440\u0431\u0438\u044f",
        "name_en": "Serbia",
        "name": "\u0421\u0435\u0440\u0431\u0438\u044f"
    },
    "model": "usermanagement.country",
    "pk": 192
},
{
    "fields": {
        "iso": "RU",
        "name_ru": "\u0420\u043e\u0441\u0441\u0438\u044f",
        "name_en": "Russia",
        "name": "\u0420\u043e\u0441\u0441\u0438\u044f"
    },
    "model": "usermanagement.country",
    "pk": 193
},
{
    "fields": {
        "iso": "RW",
        "name_ru": "\u0420\u0443\u0430\u043d\u0434\u0430",
        "name_en": "Rwanda",
        "name": "\u0420\u0443\u0430\u043d\u0434\u0430"
    },
    "model": "usermanagement.country",
    "pk": 194
},
{
    "fields": {
        "iso": "SA",
        "name_ru": "\u0421\u0430\u0443\u0434\u043e\u0432\u0441\u043a\u0430\u044f \u0410\u0440\u0430\u0432\u0438\u044f",
        "name_en": "Saudi Arabia",
        "name": "\u0421\u0430\u0443\u0434\u043e\u0432\u0441\u043a\u0430\u044f \u0410\u0440\u0430\u0432\u0438\u044f"
    },
    "model": "usermanagement.country",
    "pk": 195
},
{
    "fields": {
        "iso": "SB",
        "name_ru": "\u0421\u043e\u043b\u043e\u043c\u043e\u043d\u043e\u0432\u044b \u043e-\u0432\u0430",
        "name_en": "Solomon Islands",
        "name": "\u0421\u043e\u043b\u043e\u043c\u043e\u043d\u043e\u0432\u044b \u043e-\u0432\u0430"
    },
    "model": "usermanagement.country",
    "pk": 196
},
{
    "fields": {
        "iso": "SC",
        "name_ru": "\u0421\u0435\u0439\u0448\u0435\u043b\u044c\u0441\u043a\u0438\u0435 \u043e-\u0432\u0430",
        "name_en": "Seychelles",
        "name": "\u0421\u0435\u0439\u0448\u0435\u043b\u044c\u0441\u043a\u0438\u0435 \u043e-\u0432\u0430"
    },
    "model": "usermanagement.country",
    "pk": 197
},
{
    "fields": {
        "iso": "SD",
        "name_ru": "\u0421\u0443\u0434\u0430\u043d",
        "name_en": "Sudan",
        "name": "\u0421\u0443\u0434\u0430\u043d"
    },
    "model": "usermanagement.country",
    "pk": 198
},
{
    "fields": {
        "iso": "SE",
        "name_ru": "\u0428\u0432\u0435\u0446\u0438\u044f",
        "name_en": "Sweden",
        "name": "\u0428\u0432\u0435\u0446\u0438\u044f"
    },
    "model": "usermanagement.country",
    "pk": 199
},
{
    "fields": {
        "iso": "SG",
        "name_ru": "\u0421\u0438\u043d\u0433\u0430\u043f\u0443\u0440",
        "name_en": "Singapore",
        "name": "\u0421\u0438\u043d\u0433\u0430\u043f\u0443\u0440"
    },
    "model": "usermanagement.country",
    "pk": 200
},
{
    "fields": {
        "iso": "SH",
        "name_ru": "\u041e-\u0432 \u0421\u0432. \u0415\u043b\u0435\u043d\u044b",
        "name_en": "Saint Helena",
        "name": "\u041e-\u0432 \u0421\u0432. \u0415\u043b\u0435\u043d\u044b"
    },
    "model": "usermanagement.country",
    "pk": 201
},
{
    "fields": {
        "iso": "SI",
        "name_ru": "\u0421\u043b\u043e\u0432\u0435\u043d\u0438\u044f",
        "name_en": "Slovenia",
        "name": "\u0421\u043b\u043e\u0432\u0435\u043d\u0438\u044f"
    },
    "model": "usermanagement.country",
    "pk": 202
},
{
    "fields": {
        "iso": "SJ",
        "name_ru": "\u0428\u043f\u0438\u0446\u0431\u0435\u0440\u0433\u0435\u043d \u0438 \u042f\u043d-\u041c\u0430\u0439\u0435\u043d",
        "name_en": "Svalbard and Jan Mayen",
        "name": "\u0428\u043f\u0438\u0446\u0431\u0435\u0440\u0433\u0435\u043d \u0438 \u042f\u043d-\u041c\u0430\u0439\u0435\u043d"
    },
    "model": "usermanagement.country",
    "pk": 203
},
{
    "fields": {
        "iso": "SK",
        "name_ru": "\u0421\u043b\u043e\u0432\u0430\u043a\u0438\u044f",
        "name_en": "Slovakia",
        "name": "\u0421\u043b\u043e\u0432\u0430\u043a\u0438\u044f"
    },
    "model": "usermanagement.country",
    "pk": 204
},
{
    "fields": {
        "iso": "SL",
        "name_ru": "\u0421\u044c\u0435\u0440\u0440\u0430-\u041b\u0435\u043e\u043d\u0435",
        "name_en": "Sierra Leone",
        "name": "\u0421\u044c\u0435\u0440\u0440\u0430-\u041b\u0435\u043e\u043d\u0435"
    },
    "model": "usermanagement.country",
    "pk": 205
},
{
    "fields": {
        "iso": "SM",
        "name_ru": "\u0421\u0430\u043d-\u041c\u0430\u0440\u0438\u043d\u043e",
        "name_en": "San Marino",
        "name": "\u0421\u0430\u043d-\u041c\u0430\u0440\u0438\u043d\u043e"
    },
    "model": "usermanagement.country",
    "pk": 206
},
{
    "fields": {
        "iso": "SN",
        "name_ru": "\u0421\u0435\u043d\u0435\u0433\u0430\u043b",
        "name_en": "Senegal",
        "name": "\u0421\u0435\u043d\u0435\u0433\u0430\u043b"
    },
    "model": "usermanagement.country",
    "pk": 207
},
{
    "fields": {
        "iso": "SO",
        "name_ru": "\u0421\u043e\u043c\u0430\u043b\u0438",
        "name_en": "Somalia",
        "name": "\u0421\u043e\u043c\u0430\u043b\u0438"
    },
    "model": "usermanagement.country",
    "pk": 208
},
{
    "fields": {
        "iso": "SR",
        "name_ru": "\u0421\u0443\u0440\u0438\u043d\u0430\u043c",
        "name_en": "Suriname",
        "name": "\u0421\u0443\u0440\u0438\u043d\u0430\u043c"
    },
    "model": "usermanagement.country",
    "pk": 209
},
{
    "fields": {
        "iso": "SS",
        "name_ru": "\u042e\u0436\u043d\u044b\u0439 \u0421\u0443\u0434\u0430\u043d",
        "name_en": "South Sudan",
        "name": "\u042e\u0436\u043d\u044b\u0439 \u0421\u0443\u0434\u0430\u043d"
    },
    "model": "usermanagement.country",
    "pk": 210
},
{
    "fields": {
        "iso": "ST",
        "name_ru": "\u0421\u0430\u043d-\u0422\u043e\u043c\u0435 \u0438 \u041f\u0440\u0438\u043d\u0441\u0438\u043f\u0438",
        "name_en": "S\u00e3o Tom\u00e9 and Pr\u00edncipe",
        "name": "\u0421\u0430\u043d-\u0422\u043e\u043c\u0435 \u0438 \u041f\u0440\u0438\u043d\u0441\u0438\u043f\u0438"
    },
    "model": "usermanagement.country",
    "pk": 211
},
{
    "fields": {
        "iso": "SV",
        "name_ru": "\u0421\u0430\u043b\u044c\u0432\u0430\u0434\u043e\u0440",
        "name_en": "El Salvador",
        "name": "\u0421\u0430\u043b\u044c\u0432\u0430\u0434\u043e\u0440"
    },
    "model": "usermanagement.country",
    "pk": 212
},
{
    "fields": {
        "iso": "SX",
        "name_ru": "\u0421\u0438\u043d\u0442-\u041c\u0430\u0440\u0442\u0435\u043d",
        "name_en": "Sint Maarten",
        "name": "\u0421\u0438\u043d\u0442-\u041c\u0430\u0440\u0442\u0435\u043d"
    },
    "model": "usermanagement.country",
    "pk": 213
},
{
    "fields": {
        "iso": "SY",
        "name_ru": "\u0421\u0438\u0440\u0438\u044f",
        "name_en": "Syria",
        "name": "\u0421\u0438\u0440\u0438\u044f"
    },
    "model": "usermanagement.country",
    "pk": 214
},
{
    "fields": {
        "iso": "SZ",
        "name_ru": "\u0421\u0432\u0430\u0437\u0438\u043b\u0435\u043d\u0434",
        "name_en": "Swaziland",
        "name": "\u0421\u0432\u0430\u0437\u0438\u043b\u0435\u043d\u0434"
    },
    "model": "usermanagement.country",
    "pk": 215
},
{
    "fields": {
        "iso": "TA",
        "name_ru": "\u0422\u0440\u0438\u0441\u0442\u0430\u043d-\u0434\u0430-\u041a\u0443\u043d\u044c\u044f",
        "name_en": "Tristan da Cunha",
        "name": "\u0422\u0440\u0438\u0441\u0442\u0430\u043d-\u0434\u0430-\u041a\u0443\u043d\u044c\u044f"
    },
    "model": "usermanagement.country",
    "pk": 216
},
{
    "fields": {
        "iso": "TC",
        "name_ru": "\u041e-\u0432\u0430 \u0422\u0451\u0440\u043a\u0441 \u0438 \u041a\u0430\u0439\u043a\u043e\u0441",
        "name_en": "Turks and Caicos Islands",
        "name": "\u041e-\u0432\u0430 \u0422\u0451\u0440\u043a\u0441 \u0438 \u041a\u0430\u0439\u043a\u043e\u0441"
    },
    "model": "usermanagement.country",
    "pk": 217
},
{
    "fields": {
        "iso": "TD",
        "name_ru": "\u0427\u0430\u0434",
        "name_en": "Chad",
        "name": "\u0427\u0430\u0434"
    },
    "model": "usermanagement.country",
    "pk": 218
},
{
    "fields": {
        "iso": "TF",
        "name_ru": "\u0424\u0440\u0430\u043d\u0446\u0443\u0437\u0441\u043a\u0438\u0435 \u042e\u0436\u043d\u044b\u0435 \u0422\u0435\u0440\u0440\u0438\u0442\u043e\u0440\u0438\u0438",
        "name_en": "French Southern Territories",
        "name": "\u0424\u0440\u0430\u043d\u0446\u0443\u0437\u0441\u043a\u0438\u0435 \u042e\u0436\u043d\u044b\u0435 \u0422\u0435\u0440\u0440\u0438\u0442\u043e\u0440\u0438\u0438"
    },
    "model": "usermanagement.country",
    "pk": 219
},
{
    "fields": {
        "iso": "TG",
        "name_ru": "\u0422\u043e\u0433\u043e",
        "name_en": "Togo",
        "name": "\u0422\u043e\u0433\u043e"
    },
    "model": "usermanagement.country",
    "pk": 220
},
{
    "fields": {
        "iso": "TH",
        "name_ru": "\u0422\u0430\u0438\u043b\u0430\u043d\u0434",
        "name_en": "Thailand",
        "name": "\u0422\u0430\u0438\u043b\u0430\u043d\u0434"
    },
    "model": "usermanagement.country",
    "pk": 221
},
{
    "fields": {
        "iso": "TJ",
        "name_ru": "\u0422\u0430\u0434\u0436\u0438\u043a\u0438\u0441\u0442\u0430\u043d",
        "name_en": "Tajikistan",
        "name": "\u0422\u0430\u0434\u0436\u0438\u043a\u0438\u0441\u0442\u0430\u043d"
    },
    "model": "usermanagement.country",
    "pk": 222
},
{
    "fields": {
        "iso": "TK",
        "name_ru": "\u0422\u043e\u043a\u0435\u043b\u0430\u0443",
        "name_en": "Tokelau",
        "name": "\u0422\u043e\u043a\u0435\u043b\u0430\u0443"
    },
    "model": "usermanagement.country",
    "pk": 223
},
{
    "fields": {
        "iso": "TL",
        "name_ru": "\u0412\u043e\u0441\u0442\u043e\u0447\u043d\u044b\u0439 \u0422\u0438\u043c\u043e\u0440",
        "name_en": "Timor-Leste",
        "name": "\u0412\u043e\u0441\u0442\u043e\u0447\u043d\u044b\u0439 \u0422\u0438\u043c\u043e\u0440"
    },
    "model": "usermanagement.country",
    "pk": 224
},
{
    "fields": {
        "iso": "TM",
        "name_ru": "\u0422\u0443\u0440\u043a\u043c\u0435\u043d\u0438\u0441\u0442\u0430\u043d",
        "name_en": "Turkmenistan",
        "name": "\u0422\u0443\u0440\u043a\u043c\u0435\u043d\u0438\u0441\u0442\u0430\u043d"
    },
    "model": "usermanagement.country",
    "pk": 225
},
{
    "fields": {
        "iso": "TN",
        "name_ru": "\u0422\u0443\u043d\u0438\u0441",
        "name_en": "Tunisia",
        "name": "\u0422\u0443\u043d\u0438\u0441"
    },
    "model": "usermanagement.country",
    "pk": 226
},
{
    "fields": {
        "iso": "TO",
        "name_ru": "\u0422\u043e\u043d\u0433\u0430",
        "name_en": "Tonga",
        "name": "\u0422\u043e\u043d\u0433\u0430"
    },
    "model": "usermanagement.country",
    "pk": 227
},
{
    "fields": {
        "iso": "TR",
        "name_ru": "\u0422\u0443\u0440\u0446\u0438\u044f",
        "name_en": "Turkey",
        "name": "\u0422\u0443\u0440\u0446\u0438\u044f"
    },
    "model": "usermanagement.country",
    "pk": 228
},
{
    "fields": {
        "iso": "TT",
        "name_ru": "\u0422\u0440\u0438\u043d\u0438\u0434\u0430\u0434 \u0438 \u0422\u043e\u0431\u0430\u0433\u043e",
        "name_en": "Trinidad and Tobago",
        "name": "\u0422\u0440\u0438\u043d\u0438\u0434\u0430\u0434 \u0438 \u0422\u043e\u0431\u0430\u0433\u043e"
    },
    "model": "usermanagement.country",
    "pk": 229
},
{
    "fields": {
        "iso": "TV",
        "name_ru": "\u0422\u0443\u0432\u0430\u043b\u0443",
        "name_en": "Tuvalu",
        "name": "\u0422\u0443\u0432\u0430\u043b\u0443"
    },
    "model": "usermanagement.country",
    "pk": 230
},
{
    "fields": {
        "iso": "TW",
        "name_ru": "\u0422\u0430\u0439\u0432\u0430\u043d\u044c",
        "name_en": "Taiwan",
        "name": "\u0422\u0430\u0439\u0432\u0430\u043d\u044c"
    },
    "model": "usermanagement.country",
    "pk": 231
},
{
    "fields": {
        "iso": "TZ",
        "name_ru": "\u0422\u0430\u043d\u0437\u0430\u043d\u0438\u044f",
        "name_en": "Tanzania",
        "name": "\u0422\u0430\u043d\u0437\u0430\u043d\u0438\u044f"
    },
    "model": "usermanagement.country",
    "pk": 232
},
{
    "fields": {
        "iso": "UA",
        "name_ru": "\u0423\u043a\u0440\u0430\u0438\u043d\u0430",
        "name_en": "Ukraine",
        "name": "\u0423\u043a\u0440\u0430\u0438\u043d\u0430"
    },
    "model": "usermanagement.country",
    "pk": 233
},
{
    "fields": {
        "iso": "UG",
        "name_ru": "\u0423\u0433\u0430\u043d\u0434\u0430",
        "name_en": "Uganda",
        "name": "\u0423\u0433\u0430\u043d\u0434\u0430"
    },
    "model": "usermanagement.country",
    "pk": 234
},
{
    "fields": {
        "iso": "UM",
        "name_ru": "\u0412\u043d\u0435\u0448\u043d\u0438\u0435 \u043c\u0430\u043b\u044b\u0435 \u043e-\u0432\u0430 (\u0421\u0428\u0410)",
        "name_en": "U.S. Minor Outlying Islands",
        "name": "\u0412\u043d\u0435\u0448\u043d\u0438\u0435 \u043c\u0430\u043b\u044b\u0435 \u043e-\u0432\u0430 (\u0421\u0428\u0410)"
    },
    "model": "usermanagement.country",
    "pk": 235
},
{
    "fields": {
        "iso": "US",
        "name_ru": "\u0421\u043e\u0435\u0434\u0438\u043d\u0435\u043d\u043d\u044b\u0435 \u0428\u0442\u0430\u0442\u044b",
        "name_en": "United States",
        "name": "\u0421\u043e\u0435\u0434\u0438\u043d\u0435\u043d\u043d\u044b\u0435 \u0428\u0442\u0430\u0442\u044b"
    },
    "model": "usermanagement.country",
    "pk": 236
},
{
    "fields": {
        "iso": "UY",
        "name_ru": "\u0423\u0440\u0443\u0433\u0432\u0430\u0439",
        "name_en": "Uruguay",
        "name": "\u0423\u0440\u0443\u0433\u0432\u0430\u0439"
    },
    "model": "usermanagement.country",
    "pk": 237
},
{
    "fields": {
        "iso": "UZ",
        "name_ru": "\u0423\u0437\u0431\u0435\u043a\u0438\u0441\u0442\u0430\u043d",
        "name_en": "Uzbekistan",
        "name": "\u0423\u0437\u0431\u0435\u043a\u0438\u0441\u0442\u0430\u043d"
    },
    "model": "usermanagement.country",
    "pk": 238
},
{
    "fields": {
        "iso": "VA",
        "name_ru": "\u0412\u0430\u0442\u0438\u043a\u0430\u043d",
        "name_en": "Vatican City",
        "name": "\u0412\u0430\u0442\u0438\u043a\u0430\u043d"
    },
    "model": "usermanagement.country",
    "pk": 239
},
{
    "fields": {
        "iso": "VC",
        "name_ru": "\u0421\u0435\u043d\u0442-\u0412\u0438\u043d\u0441\u0435\u043d\u0442 \u0438 \u0413\u0440\u0435\u043d\u0430\u0434\u0438\u043d\u044b",
        "name_en": "Saint Vincent and the Grenadines",
        "name": "\u0421\u0435\u043d\u0442-\u0412\u0438\u043d\u0441\u0435\u043d\u0442 \u0438 \u0413\u0440\u0435\u043d\u0430\u0434\u0438\u043d\u044b"
    },
    "model": "usermanagement.country",
    "pk": 240
},
{
    "fields": {
        "iso": "VE",
        "name_ru": "\u0412\u0435\u043d\u0435\u0441\u0443\u044d\u043b\u0430",
        "name_en": "Venezuela",
        "name": "\u0412\u0435\u043d\u0435\u0441\u0443\u044d\u043b\u0430"
    },
    "model": "usermanagement.country",
    "pk": 241
},
{
    "fields": {
        "iso": "VG",
        "name_ru": "\u0412\u0438\u0440\u0433\u0438\u043d\u0441\u043a\u0438\u0435 \u043e-\u0432\u0430 (\u0411\u0440\u0438\u0442\u0430\u043d\u0441\u043a\u0438\u0435)",
        "name_en": "British Virgin Islands",
        "name": "\u0412\u0438\u0440\u0433\u0438\u043d\u0441\u043a\u0438\u0435 \u043e-\u0432\u0430 (\u0411\u0440\u0438\u0442\u0430\u043d\u0441\u043a\u0438\u0435)"
    },
    "model": "usermanagement.country",
    "pk": 242
},
{
    "fields": {
        "iso": "VI",
        "name_ru": "\u0412\u0438\u0440\u0433\u0438\u043d\u0441\u043a\u0438\u0435 \u043e-\u0432\u0430 (\u0421\u0428\u0410)",
        "name_en": "U.S. Virgin Islands",
        "name": "\u0412\u0438\u0440\u0433\u0438\u043d\u0441\u043a\u0438\u0435 \u043e-\u0432\u0430 (\u0421\u0428\u0410)"
    },
    "model": "usermanagement.country",
    "pk": 243
},
{
    "fields": {
        "iso": "VN",
        "name_ru": "\u0412\u044c\u0435\u0442\u043d\u0430\u043c",
        "name_en": "Vietnam",
        "name": "\u0412\u044c\u0435\u0442\u043d\u0430\u043c"
    },
    "model": "usermanagement.country",
    "pk": 244
},
{
    "fields": {
        "iso": "VU",
        "name_ru": "\u0412\u0430\u043d\u0443\u0430\u0442\u0443",
        "name_en": "Vanuatu",
        "name": "\u0412\u0430\u043d\u0443\u0430\u0442\u0443"
    },
    "model": "usermanagement.country",
    "pk": 245
},
{
    "fields": {
        "iso": "WF",
        "name_ru": "\u0423\u043e\u043b\u043b\u0438\u0441 \u0438 \u0424\u0443\u0442\u0443\u043d\u0430",
        "name_en": "Wallis and Futuna",
        "name": "\u0423\u043e\u043b\u043b\u0438\u0441 \u0438 \u0424\u0443\u0442\u0443\u043d\u0430"
    },
    "model": "usermanagement.country",
    "pk": 246
},
{
    "fields": {
        "iso": "WS",
        "name_ru": "\u0421\u0430\u043c\u043e\u0430",
        "name_en": "Samoa",
        "name": "\u0421\u0430\u043c\u043e\u0430"
    },
    "model": "usermanagement.country",
    "pk": 247
},
{
    "fields": {
        "iso": "YE",
        "name_ru": "\u0419\u0435\u043c\u0435\u043d",
        "name_en": "Yemen",
        "name": "\u0419\u0435\u043c\u0435\u043d"
    },
    "model": "usermanagement.country",
    "pk": 248
},
{
    "fields": {
        "iso": "YT",
        "name_ru": "\u041c\u0430\u0439\u043e\u0442\u0442\u0430",
        "name_en": "Mayotte",
        "name": "\u041c\u0430\u0439\u043e\u0442\u0442\u0430"
    },
    "model": "usermanagement.country",
    "pk": 249
},
{
    "fields": {
        "iso": "ZA",
        "name_ru": "\u042e\u0410\u0420",
        "name_en": "South Africa",
        "name": "\u042e\u0410\u0420"
    },
    "model": "usermanagement.country",
    "pk": 250
},
{
    "fields": {
        "iso": "ZM",
        "name_ru": "\u0417\u0430\u043c\u0431\u0438\u044f",
        "name_en": "Zambia",
        "name": "\u0417\u0430\u043c\u0431\u0438\u044f"
    },
    "model": "usermanagement.country",
    "pk": 251
},
{
    "fields": {
        "iso": "ZW",
        "name_ru": "\u0417\u0438\u043c\u0431\u0430\u0431\u0432\u0435",
        "name_en": "Zimbabwe",
        "name": "\u0417\u0438\u043c\u0431\u0430\u0431\u0432\u0435"
    },
    "model": "usermanagement.country",
    "pk": 252
}
]
